[gd_resource type="SpatialMaterial" load_steps=2 format=2]

[ext_resource path="res://Assets/Models/Cars/MuscleCar/Images/Underside.bmp" type="Texture" id=1]

[resource]
albedo_texture = ExtResource( 1 )
