[gd_scene load_steps=12 format=2]

[ext_resource path="res://Assets/Models/WaterEnvironment/Fish/Fish type 1/Fish type 1_Fish type 1_BaseColor.png" type="Texture" id=1]
[ext_resource path="res://Assets/Models/WaterEnvironment/Fish/Fish type 1/Fish type 1.obj" type="ArrayMesh" id=2]
[ext_resource path="res://Source/WaterEnvironment/Fishes/Fish-1.gd" type="Script" id=3]

[sub_resource type="SpatialMaterial" id=1]
albedo_texture = ExtResource( 1 )
metallic_specular = 0.0

[sub_resource type="ConvexPolygonShape" id=2]
points = PoolVector3Array( -0.551647, 0.130282, -0.227837, -0.551647, 0.130282, -0.208218, -0.551647, 0.13617, -0.2298, -0.551647, 0.13617, -0.206258, -0.551647, 0.189149, -0.206258, -0.545556, 0.186325, -0.2283, -0.535925, 0.128321, -0.225873, -0.535925, 0.128321, -0.210182, -0.533976, 0.155791, -0.194476, -0.533976, 0.175411, -0.194476, -0.532014, 0.179333, -0.194476, -0.530039, 0.181294, -0.194476, -0.52809, 0.147941, -0.194476, -0.526128, 0.187182, -0.196443, -0.518281, 0.140092, -0.196443, -0.512368, 0.14402, -0.194476, -0.510419, 0.187182, -0.196443, -0.502572, 0.126354, -0.208218, -0.50061, 0.126354, -0.2298, -0.50061, 0.126354, -0.206258, -0.495243, 0.168047, -0.232685, -0.486876, 0.126354, -0.206258, -0.484901, 0.126354, -0.2298, -0.482965, 0.126354, -0.227837, -0.482965, 0.126354, -0.208218, -0.48099, 0.177372, -0.231764, -0.457446, 0.142059, -0.210182, -0.455484, 0.14402, -0.208218, -0.455084, 0.185731, -0.227985, -0.45156, 0.145981, -0.225873, -0.449599, 0.147941, -0.227837, -0.449599, 0.189149, -0.206258, -0.443699, 0.151869, -0.210182, -0.439775, 0.155791, -0.208218, -0.43389, 0.159712, -0.225873, -0.43389, 0.159712, -0.210182, -0.43389, 0.161673, -0.227837, -0.43389, 0.161673, -0.208218, -0.431941, 0.165595, -0.208218, -0.431941, 0.189149, -0.208218, -0.422131, 0.173444, -0.225873, -0.422131, 0.173444, -0.210182, -0.422131, 0.189149, -0.225873, -0.422131, 0.189149, -0.210182, -0.418207, 0.175411, -0.223913, -0.418207, 0.175411, -0.212145, -0.418207, 0.189149, -0.223913, -0.418207, 0.189149, -0.212145, -0.416219, 0.177372, -0.221949, -0.416219, 0.177372, -0.214098, -0.416219, 0.185221, -0.221949, -0.416219, 0.185221, -0.214098 )

[sub_resource type="ConvexPolygonShape" id=3]
points = PoolVector3Array( -0.53594, 0.157756, -0.239617, -0.53594, 0.157756, -0.235694, -0.53594, 0.173446, -0.239617, -0.53594, 0.173446, -0.235694, -0.533974, 0.151868, -0.239617, -0.533974, 0.151868, -0.235694, -0.533974, 0.17541, -0.241581, -0.533974, 0.179334, -0.239617, -0.533974, 0.179334, -0.235694, -0.532014, 0.151868, -0.241581, -0.530048, 0.181298, -0.241581, -0.528087, 0.14402, -0.239617, -0.526127, 0.14402, -0.235694, -0.526127, 0.14598, -0.241581, -0.526127, 0.187186, -0.239617, -0.524161, 0.187186, -0.235694, -0.5222, 0.142056, -0.235694, -0.52024, 0.140092, -0.239617, -0.516313, 0.18915, -0.239617, -0.516313, 0.18915, -0.237655, -0.514347, 0.140092, -0.237655, -0.514347, 0.14402, -0.241581, -0.514347, 0.185222, -0.241581, -0.510426, 0.142056, -0.235694, -0.50651, 0.147944, -0.241581, -0.50651, 0.179334, -0.241581, -0.50455, 0.14402, -0.239617, -0.50455, 0.14402, -0.235694, -0.50455, 0.153832, -0.241581, -0.50455, 0.185222, -0.239617, -0.500623, 0.157756, -0.23177, -0.500623, 0.173446, -0.23177, -0.498657, 0.153832, -0.23177, -0.498657, 0.177374, -0.23177, -0.496697, 0.153832, -0.239617, -0.496697, 0.177374, -0.239617, -0.494736, 0.169522, -0.239617, -0.49081, 0.153832, -0.23177, -0.49081, 0.155796, -0.237655, -0.488849, 0.161684, -0.237655, -0.488849, 0.179334, -0.23177, -0.486883, 0.155796, -0.233732, -0.486883, 0.177374, -0.235694, -0.484923, 0.171486, -0.235694, -0.482957, 0.15972, -0.233732, -0.482957, 0.15972, -0.23177, -0.482957, 0.17541, -0.233732, -0.482957, 0.17541, -0.23177 )

[sub_resource type="ConvexPolygonShape" id=4]
points = PoolVector3Array( -0.551647, 0.0988723, -0.21214, -0.551647, 0.0988723, -0.208215, -0.551647, 0.112608, -0.21214, -0.551647, 0.112608, -0.208215, -0.549676, 0.096908, -0.214102, -0.549676, 0.110644, -0.206254, -0.549676, 0.114566, -0.214102, -0.54771, 0.096908, -0.206254, -0.54771, 0.118494, -0.208215, -0.545751, 0.0929829, -0.214102, -0.545751, 0.0929829, -0.208215, -0.545751, 0.118494, -0.214102, -0.543786, 0.120458, -0.21214, -0.541827, 0.0910186, -0.21214, -0.541827, 0.0910186, -0.208215, -0.541827, 0.120458, -0.208215, -0.539862, 0.116533, -0.206254, -0.530049, 0.0910186, -0.208215, -0.52809, 0.0910186, -0.21214, -0.526125, 0.0929829, -0.214102, -0.526125, 0.0949506, -0.206254, -0.516324, 0.096908, -0.21214, -0.516324, 0.096908, -0.208215, -0.510434, 0.100833, -0.208215, -0.508475, 0.104758, -0.206254, -0.504943, 0.128518, -0.212381, -0.504551, 0.106722, -0.214102, -0.502712, 0.128556, -0.214593, -0.502586, 0.126348, -0.206254, -0.48689, 0.124384, -0.214102, -0.48689, 0.124384, -0.206254, -0.48689, 0.126348, -0.214102, -0.48689, 0.126348, -0.206254 )

[sub_resource type="ConvexPolygonShape" id=5]
points = PoolVector3Array( -0.551647, 0.0988723, -0.227842, -0.551647, 0.0988723, -0.223918, -0.551647, 0.112608, -0.227842, -0.551647, 0.112608, -0.223918, -0.549676, 0.096908, -0.221956, -0.549676, 0.100833, -0.229804, -0.549676, 0.110644, -0.229804, -0.549676, 0.114566, -0.221956, -0.54771, 0.118494, -0.227842, -0.54771, 0.118494, -0.223918, -0.545751, 0.0929829, -0.221956, -0.545751, 0.0949506, -0.229804, -0.543786, 0.118494, -0.221956, -0.543786, 0.120458, -0.223918, -0.541827, 0.0910186, -0.227842, -0.541827, 0.0910186, -0.223918, -0.541827, 0.116533, -0.229804, -0.541827, 0.120458, -0.227842, -0.530049, 0.0910186, -0.227842, -0.52809, 0.0910186, -0.22588, -0.526125, 0.0929829, -0.221956, -0.520235, 0.096908, -0.229804, -0.516324, 0.096908, -0.227842, -0.516324, 0.096908, -0.223918, -0.510434, 0.100833, -0.227842, -0.508475, 0.104758, -0.229804, -0.504847, 0.128651, -0.221444, -0.504551, 0.106722, -0.221956, -0.502586, 0.126348, -0.229804, -0.48689, 0.124384, -0.229804, -0.48689, 0.124384, -0.221956, -0.48689, 0.126348, -0.229804, -0.48689, 0.126348, -0.221956 )

[sub_resource type="ConvexPolygonShape" id=6]
points = PoolVector3Array( -0.551647, 0.189155, -0.229802, -0.551647, 0.189155, -0.206255, -0.551647, 0.2284, -0.206255, -0.551647, 0.230364, -0.229802, -0.551647, 0.25195, -0.227838, -0.551647, 0.25195, -0.208219, -0.551647, 0.259804, -0.223914, -0.551647, 0.259804, -0.212143, -0.549659, 0.230364, -0.206255, -0.549659, 0.259804, -0.225875, -0.549659, 0.261768, -0.223914, -0.549659, 0.261768, -0.212143, -0.543773, 0.261768, -0.225875, -0.543773, 0.261768, -0.210182, -0.543773, 0.263732, -0.223914, -0.543773, 0.263732, -0.212143, -0.541824, 0.232327, -0.229802, -0.539862, 0.232327, -0.206255, -0.539862, 0.255877, -0.227838, -0.5379, 0.255877, -0.208219, -0.520243, 0.263732, -0.223914, -0.520243, 0.263732, -0.212143, -0.516305, 0.261768, -0.225875, -0.516305, 0.261768, -0.210182, -0.514343, 0.261768, -0.223914, -0.512368, 0.255877, -0.227838, -0.512368, 0.255877, -0.208219, -0.510419, 0.259804, -0.212143, -0.45156, 0.2284, -0.225875, -0.45156, 0.2284, -0.210182, -0.447623, 0.224494, -0.227838, -0.447623, 0.224494, -0.208219, -0.439775, 0.198981, -0.231762, -0.439775, 0.204865, -0.204289, -0.439775, 0.206829, -0.231762, -0.439775, 0.220567, -0.225875, -0.439775, 0.220567, -0.210182, -0.431941, 0.189155, -0.208219, -0.431941, 0.198981, -0.231762, -0.431941, 0.198981, -0.204289, -0.431941, 0.206829, -0.231762, -0.431941, 0.206829, -0.204289, -0.42408, 0.204865, -0.225875, -0.42408, 0.204865, -0.210182, -0.418207, 0.189155, -0.223914, -0.418207, 0.189155, -0.212143, -0.418207, 0.198981, -0.223914, -0.418207, 0.198981, -0.212143, -0.416219, 0.189155, -0.214106, -0.416219, 0.19309, -0.223914, -0.416219, 0.195054, -0.214106 )

[sub_resource type="ConvexPolygonShape" id=7]
points = PoolVector3Array( -0.655662, 0.159728, -0.221951, -0.655662, 0.159728, -0.214106, -0.655662, 0.161692, -0.223913, -0.655662, 0.161692, -0.212142, -0.655662, 0.19699, -0.223913, -0.655662, 0.19699, -0.212142, -0.653697, 0.1401, -0.221951, -0.653697, 0.142064, -0.223913, -0.653697, 0.142064, -0.212142, -0.651732, 0.138136, -0.212142, -0.649767, 0.136186, -0.223913, -0.647802, 0.163656, -0.225877, -0.647802, 0.163656, -0.21018, -0.647802, 0.183283, -0.21018, -0.647802, 0.185247, -0.225877, -0.641917, 0.144029, -0.225877, -0.641917, 0.144029, -0.21018, -0.639952, 0.218582, -0.223913, -0.639952, 0.218582, -0.212142, -0.637997, 0.12833, -0.223913, -0.637997, 0.12833, -0.212142, -0.637997, 0.161692, -0.227839, -0.637997, 0.161692, -0.208219, -0.637997, 0.220546, -0.212142, -0.634067, 0.136186, -0.225877, -0.634067, 0.136186, -0.21018, -0.630147, 0.124401, -0.223913, -0.630147, 0.124401, -0.212142, -0.628182, 0.230352, -0.223913, -0.626471, 0.227547, -0.212553, -0.624252, 0.122437, -0.223913, -0.624252, 0.122437, -0.212142, -0.624252, 0.130294, -0.225877, -0.624252, 0.130294, -0.21018, -0.624252, 0.163656, -0.229803, -0.624252, 0.163656, -0.206252, -0.624252, 0.169548, -0.229803, -0.622297, 0.161692, -0.206252, -0.612482, 0.120473, -0.223913, -0.612482, 0.120473, -0.212142, -0.602687, 0.120473, -0.223913, -0.602687, 0.120473, -0.212142, -0.588952, 0.122437, -0.223913, -0.588952, 0.122437, -0.212142, -0.571287, 0.138136, -0.229803, -0.569322, 0.138136, -0.206252, -0.561472, 0.248016, -0.227839, -0.561472, 0.248016, -0.208219, -0.559518, 0.228388, -0.229803, -0.559518, 0.228388, -0.206252, -0.555587, 0.2598, -0.223913, -0.555587, 0.2598, -0.212142, -0.553622, 0.257836, -0.225877, -0.553622, 0.257836, -0.21018, -0.551657, 0.130294, -0.227839, -0.551657, 0.130294, -0.208219, -0.551657, 0.136186, -0.229803, -0.551657, 0.136186, -0.206252, -0.551657, 0.228388, -0.229803, -0.551657, 0.228388, -0.206252, -0.551657, 0.24998, -0.227839, -0.551657, 0.24998, -0.208219, -0.551657, 0.257836, -0.225877, -0.551657, 0.2598, -0.212142 )

[sub_resource type="ConvexPolygonShape" id=8]
points = PoolVector3Array( -0.734181, 0.173461, -0.221953, -0.734181, 0.173461, -0.214104, -0.734181, 0.187185, -0.221953, -0.734181, 0.187185, -0.214104, -0.732206, 0.169536, -0.214104, -0.732206, 0.171495, -0.223914, -0.732206, 0.18522, -0.212142, -0.732206, 0.187185, -0.223914, -0.730254, 0.167571, -0.212142, -0.730254, 0.195034, -0.221953, -0.728279, 0.163647, -0.221953, -0.728279, 0.195034, -0.223914, -0.728279, 0.195034, -0.212142, -0.726327, 0.200923, -0.221953, -0.726327, 0.200923, -0.214104, -0.722393, 0.155799, -0.221953, -0.722393, 0.155799, -0.214104, -0.718466, 0.153834, -0.223914, -0.718466, 0.153834, -0.212142, -0.718466, 0.204847, -0.212142, -0.716514, 0.206812, -0.223914, -0.716514, 0.210736, -0.221953, -0.716514, 0.210736, -0.214104, -0.714554, 0.149909, -0.214104, -0.712579, 0.212695, -0.221953, -0.712579, 0.212695, -0.214104, -0.710627, 0.147938, -0.221953, -0.710627, 0.147938, -0.214104, -0.710627, 0.149909, -0.223914, -0.710627, 0.149909, -0.212142, -0.708652, 0.208771, -0.212142, -0.702765, 0.208771, -0.223914, -0.696886, 0.212695, -0.221953, -0.696886, 0.212695, -0.214104, -0.694927, 0.206812, -0.212142, -0.691015, 0.147938, -0.221953, -0.691015, 0.147938, -0.214104, -0.68904, 0.149909, -0.223914, -0.68904, 0.149909, -0.212142, -0.659599, 0.157758, -0.221953, -0.659599, 0.157758, -0.214104, -0.657647, 0.198958, -0.221953, -0.657647, 0.198958, -0.216067, -0.655672, 0.159723, -0.223914, -0.655672, 0.159723, -0.212142, -0.655672, 0.196999, -0.223914, -0.655672, 0.196999, -0.212142 )

[node name="Fish-1" type="KinematicBody"]
script = ExtResource( 3 )

[node name="MeshInstance" type="MeshInstance" parent="."]
transform = Transform( 1, 0, 0, 0, 1, 0, 0, 0, 1, 0.5, 0, 0.2 )
mesh = ExtResource( 2 )
material/0 = SubResource( 1 )

[node name="CollisionShape7" type="CollisionShape" parent="."]
transform = Transform( 1, 0, 0, 0, 1, 0, 0, 0, 1, 0.5, 0, 0.2 )
shape = SubResource( 2 )

[node name="CollisionShape6" type="CollisionShape" parent="."]
transform = Transform( 1, 0, 0, 0, 1, 0, 0, 0, 1, 0.5, 0, 0.2 )
shape = SubResource( 3 )

[node name="CollisionShape5" type="CollisionShape" parent="."]
transform = Transform( 1, 0, 0, 0, 1, 0, 0, 0, 1, 0.5, 0, 0.2 )
shape = SubResource( 4 )

[node name="CollisionShape4" type="CollisionShape" parent="."]
transform = Transform( 1, 0, 0, 0, 1, 0, 0, 0, 1, 0.5, 0, 0.2 )
shape = SubResource( 5 )

[node name="CollisionShape3" type="CollisionShape" parent="."]
transform = Transform( 1, 0, 0, 0, 1, 0, 0, 0, 1, 0.5, 0, 0.2 )
shape = SubResource( 6 )

[node name="CollisionShape2" type="CollisionShape" parent="."]
transform = Transform( 1, 0, 0, 0, 1, 0, 0, 0, 1, 0.5, 0, 0.2 )
shape = SubResource( 7 )

[node name="CollisionShape" type="CollisionShape" parent="."]
transform = Transform( 1, 0, 0, 0, 1, 0, 0, 0, 1, 0.5, 0, 0.2 )
shape = SubResource( 8 )

[node name="Timer" type="Timer" parent="."]
wait_time = 3.0
autostart = true
[connection signal="timeout" from="Timer" to="." method="_on_Timer_timeout"]
